<?xml version="1.0" encoding="UTF-8" standalone="no"?>
<!-- Created with Inkscape (http://www.inkscape.org/) -->

<svg
   width="100"
   height="100"
   viewBox="0 0 26.458333 26.458334"
   version="1.1"
   id="svg5"
   inkscape:version="1.1 (c68e22c387, 2021-05-23)"
   sodipodi:docname="icon.svg"
   xmlns:inkscape="http://www.inkscape.org/namespaces/inkscape"
   xmlns:sodipodi="http://sodipodi.sourceforge.net/DTD/sodipodi-0.dtd"
   xmlns:xlink="http://www.w3.org/1999/xlink"
   xmlns="http://www.w3.org/2000/svg"
   xmlns:svg="http://www.w3.org/2000/svg">
  <sodipodi:namedview
     id="namedview7"
     pagecolor="#ffffff"
     bordercolor="#666666"
     borderopacity="1.0"
     inkscape:pageshadow="2"
     inkscape:pageopacity="0"
     inkscape:pagecheckerboard="true"
     inkscape:document-units="mm"
     showgrid="true"
     units="px"
     inkscape:zoom="3.77"
     inkscape:cx="47.34748"
     inkscape:cy="45.35809"
     inkscape:window-width="1920"
     inkscape:window-height="1024"
     inkscape:window-x="0"
     inkscape:window-y="27"
     inkscape:window-maximized="1"
     inkscape:current-layer="layer1">
    <inkscape:grid
       type="xygrid"
       id="grid859" />
  </sodipodi:namedview>
  <defs
     id="defs2">
    <linearGradient
       inkscape:collect="always"
       id="linearGradient7708">
      <stop
         style="stop-color:#a7a7a7;stop-opacity:1;"
         offset="0"
         id="stop7704" />
      <stop
         style="stop-color:#f0f0f0;stop-opacity:1"
         offset="1"
         id="stop7706" />
    </linearGradient>
    <linearGradient
       inkscape:collect="always"
       id="linearGradient3900">
      <stop
         style="stop-color:#e6e3c0;stop-opacity:1"
         offset="0"
         id="stop3896" />
      <stop
         style="stop-color:#ffffff;stop-opacity:1"
         offset="1"
         id="stop3898" />
    </linearGradient>
    <linearGradient
       inkscape:collect="always"
       xlink:href="#linearGradient3900"
       id="linearGradient3902"
       x1="13.229167"
       y1="23.8125"
       x2="13.229167"
       y2="2.6458333"
       gradientUnits="userSpaceOnUse" />
    <linearGradient
       inkscape:collect="always"
       xlink:href="#linearGradient7708"
       id="linearGradient7710"
       x1="13.229167"
       y1="15.875"
       x2="13.229167"
       y2="7.6729169"
       gradientUnits="userSpaceOnUse" />
  </defs>
  <g
     inkscape:label="レイヤー 1"
     inkscape:groupmode="layer"
     id="layer1">
    <path
       style="fill:url(#linearGradient3902);stroke:#000000;stroke-width:0.13229167;stroke-linecap:round;stroke-linejoin:bevel;stroke-miterlimit:4;stroke-dasharray:none;stroke-opacity:0.18155406;fill-opacity:1"
       d="M 3.6224747,23.027137 4.5991782,23.919414 9.060566,19.035898 11.90625,19.84375 23.505858,7.1466071 18.622341,2.6852193 7.0227333,15.382362 8.0838623,18.14362 Z"
       id="path3520" />
    <path
       style="fill:none;stroke:#000000;stroke-width:0.11377083;stroke-linecap:butt;stroke-linejoin:miter;stroke-opacity:1;stroke-miterlimit:4;stroke-dasharray:none"
       d="m 5.5224634,21.011245 0.9960541,0.817432"
       id="path5457" />
    <path
       style="fill:#a7a7a7;fill-opacity:1;stroke:none;stroke-width:0.0188514;stroke-linecap:round;stroke-linejoin:bevel;stroke-miterlimit:4;stroke-dasharray:none;stroke-opacity:0.181554"
       d="m 20.432291,79.168693 c -1.427655,1.491504 -2.790489,3.046192 -4.185355,4.5691 -0.880519,0.984404 -1.784323,1.94952 -2.64262,2.952958 -0.212334,0.33324 -0.03212,0.735139 0.263471,0.94625 1.042959,0.943829 2.049887,1.931641 3.141354,2.819573 0.338891,0.254993 0.789217,0.05822 1.003372,-0.263002 2.220202,-2.418675 4.452273,-4.827061 6.641901,-7.27344 0.280551,-0.302538 0.161715,-0.795376 -0.178273,-1.000281 -1.103983,-0.930103 -2.218261,-1.852453 -3.3444,-2.752976 -0.214556,-0.153312 -0.481608,-0.133706 -0.69945,0.0018 z"
       id="path5535"
       transform="scale(0.26458333)" />
    <path
       style="fill:url(#linearGradient7710);stroke:#000000;stroke-width:0.13229167;stroke-linecap:butt;stroke-linejoin:miter;stroke-opacity:1;stroke-miterlimit:4;stroke-dasharray:none;fill-opacity:1"
       d="M 10.583333,13.229167 13.229167,15.875 18.520833,10.054167 15.610417,7.6729167 Z"
       id="path6699"
       sodipodi:nodetypes="ccccc" />
  </g>
</svg>
